<?xml version="1.0" encoding="UTF-8"?>
<svg width="120px" height="100px" viewBox="0 0 120 100" version="1.1" xmlns="http://www.w3.org/2000/svg" xmlns:xlink="http://www.w3.org/1999/xlink">
    <!-- Generator: Sketch 52.6 (67491) - http://www.bohemiancoding.com/sketch -->
    <title>Combined Shape</title>
    <desc>Created with Sketch.</desc>
    <g id="Page-1" stroke="none" stroke-width="1" fill="none" fill-rule="evenodd">
        <g id="Desktop" transform="translate(-980.000000, -220.000000)" fill="#757575">
            <path d="M986,220 L1094,220 C1097.31371,220 1100,222.686292 1100,226 L1100,314 C1100,317.313708 1097.31371,320 1094,320 L986,320 C982.686292,320 980,317.313708 980,314 L980,226 C980,222.686292 982.686292,220 986,220 Z M989,230 L989,244 L1004,244 L1004,230 L989,230 Z M1077,230 L1077,244 L1092,244 L1092,230 L1077,230 Z M989,252 L989,266 L1004,266 L1004,252 L989,252 Z M1077,252 L1077,266 L1092,266 L1092,252 L1077,252 Z M989,274 L989,288 L1004,288 L1004,274 L989,274 Z M1077,274 L1077,288 L1092,288 L1092,274 L1077,274 Z M989,296 L989,310 L1004,310 L1004,296 L989,296 Z M1077,296 L1077,310 L1092,310 L1092,296 L1077,296 Z" id="Combined-Shape"></path>
        </g>
    </g>
</svg>